%
G90
G21
G49
G17
F1200
M3 S0
G00 Z4.000
G00 X68.350 Y57.330
G00 Z0.500
G01 Z-0.500 F1200
G01 X77.350 F600 
G01 Y66.330
G01 X68.350
G01 Y63.830
G01 Y59.830
G01 Y57.330
G01 Z-1.000 F1200
G01 X77.350 F600 
G01 Y66.330
G01 X68.350
G01 Y63.830
G01 Y59.830
G01 Y57.330
G01 Z-1.500 F1200
G01 X77.350 F600 
G01 Y66.330
G01 X68.350
G01 Y63.830
G01 Y59.830
G01 Y57.330
G01 Z-2.000 F1200
G01 X77.350 F600 
G01 Y66.330
G01 X68.350
G01 Y63.830
G01 Y59.830
G01 Y57.330
G01 Z-2.500 F1200
G01 X77.350 F600 
G01 Y66.330
G01 X68.350
G01 Y63.830
G01 Z-2.000
G01 Y59.830
G01 Z-2.500 F1200
G01 Y57.330 F600 
G01 Z-3.000 F1200
G01 X77.350 F600 
G01 Y66.330
G01 X68.350
G01 Y63.830
G01 Z-2.000
G01 Y59.830
G01 Z-3.000 F1200
G01 Y57.330 F600 
G01 Z-3.500 F1200
G01 X77.350 F600 
G01 Y66.330
G01 X68.350
G01 Y63.830
G01 Z-2.000
G01 Y59.830
G01 Z-3.500 F1200
G01 Y57.330 F600 
G01 Z-4.000 F1200
G01 X77.350 F600 
G01 Y66.330
G01 X68.350
G01 Y63.830
G01 Z-2.000
G01 Y59.830
G01 Z-4.000 F1200
G01 Y57.330 F600 
G00 Z4.000
G00 Y76.380
G00 Z0.500
G01 Z-0.500 F1200
G01 X77.350 F600 
G01 Y85.380
G01 X68.350
G01 Y82.880
G01 Y78.880
G01 Y76.380
G01 Z-1.000 F1200
G01 X77.350 F600 
G01 Y85.380
G01 X68.350
G01 Y82.880
G01 Y78.880
G01 Y76.380
G01 Z-1.500 F1200
G01 X77.350 F600 
G01 Y85.380
G01 X68.350
G01 Y82.880
G01 Y78.880
G01 Y76.380
G01 Z-2.000 F1200
G01 X77.350 F600 
G01 Y85.380
G01 X68.350
G01 Y82.880
G01 Y78.880
G01 Y76.380
G01 Z-2.500 F1200
G01 X77.350 F600 
G01 Y85.380
G01 X68.350
G01 Y82.880
G01 Z-2.000
G01 Y78.880
G01 Z-2.500 F1200
G01 Y76.380 F600 
G01 Z-3.000 F1200
G01 X77.350 F600 
G01 Y85.380
G01 X68.350
G01 Y82.880
G01 Z-2.000
G01 Y78.880
G01 Z-3.000 F1200
G01 Y76.380 F600 
G01 Z-3.500 F1200
G01 X77.350 F600 
G01 Y85.380
G01 X68.350
G01 Y82.880
G01 Z-2.000
G01 Y78.880
G01 Z-3.500 F1200
G01 Y76.380 F600 
G01 Z-4.000 F1200
G01 X77.350 F600 
G01 Y85.380
G01 X68.350
G01 Y82.880
G01 Z-2.000
G01 Y78.880
G01 Z-4.000 F1200
G01 Y76.380 F600 
G00 Z4.000
G00 Y95.430
G00 Z0.500
G01 Z-0.500 F1200
G01 X77.350 F600 
G01 Y104.430
G01 X68.350
G01 Y101.930
G01 Y97.930
G01 Y95.430
G01 Z-1.000 F1200
G01 X77.350 F600 
G01 Y104.430
G01 X68.350
G01 Y101.930
G01 Y97.930
G01 Y95.430
G01 Z-1.500 F1200
G01 X77.350 F600 
G01 Y104.430
G01 X68.350
G01 Y101.930
G01 Y97.930
G01 Y95.430
G01 Z-2.000 F1200
G01 X77.350 F600 
G01 Y104.430
G01 X68.350
G01 Y101.930
G01 Y97.930
G01 Y95.430
G01 Z-2.500 F1200
G01 X77.350 F600 
G01 Y104.430
G01 X68.350
G01 Y101.930
G01 Z-2.000
G01 Y97.930
G01 Z-2.500 F1200
G01 Y95.430 F600 
G01 Z-3.000 F1200
G01 X77.350 F600 
G01 Y104.430
G01 X68.350
G01 Y101.930
G01 Z-2.000
G01 Y97.930
G01 Z-3.000 F1200
G01 Y95.430 F600 
G01 Z-3.500 F1200
G01 X77.350 F600 
G01 Y104.430
G01 X68.350
G01 Y101.930
G01 Z-2.000
G01 Y97.930
G01 Z-3.500 F1200
G01 Y95.430 F600 
G01 Z-4.000 F1200
G01 X77.350 F600 
G01 Y104.430
G01 X68.350
G01 Y101.930
G01 Z-2.000
G01 Y97.930
G01 Z-4.000 F1200
G01 Y95.430 F600 
G00 Z4.000
G00 Y114.480
G00 Z0.500
G01 Z-0.500 F1200
G01 X77.350 F600 
G01 Y123.480
G01 X68.350
G01 Y120.980
G01 Y116.980
G01 Y114.480
G01 Z-1.000 F1200
G01 X77.350 F600 
G01 Y123.480
G01 X68.350
G01 Y120.980
G01 Y116.980
G01 Y114.480
G01 Z-1.500 F1200
G01 X77.350 F600 
G01 Y123.480
G01 X68.350
G01 Y120.980
G01 Y116.980
G01 Y114.480
G01 Z-2.000 F1200
G01 X77.350 F600 
G01 Y123.480
G01 X68.350
G01 Y120.980
G01 Y116.980
G01 Y114.480
G01 Z-2.500 F1200
G01 X77.350 F600 
G01 Y123.480
G01 X68.350
G01 Y120.980
G01 Z-2.000
G01 Y116.980
G01 Z-2.500 F1200
G01 Y114.480 F600 
G01 Z-3.000 F1200
G01 X77.350 F600 
G01 Y123.480
G01 X68.350
G01 Y120.980
G01 Z-2.000
G01 Y116.980
G01 Z-3.000 F1200
G01 Y114.480 F600 
G01 Z-3.500 F1200
G01 X77.350 F600 
G01 Y123.480
G01 X68.350
G01 Y120.980
G01 Z-2.000
G01 Y116.980
G01 Z-3.500 F1200
G01 Y114.480 F600 
G01 Z-4.000 F1200
G01 X77.350 F600 
G01 Y123.480
G01 X68.350
G01 Y120.980
G01 Z-2.000
G01 Y116.980
G01 Z-4.000 F1200
G01 Y114.480 F600 
G00 Z4.000
G00 X87.400
G00 Z0.500
G01 Z-0.500 F1200
G01 X96.400 F600 
G01 Y123.480
G01 X87.400
G01 Y120.980
G01 Y116.980
G01 Y114.480
G01 Z-1.000 F1200
G01 X96.400 F600 
G01 Y123.480
G01 X87.400
G01 Y120.980
G01 Y116.980
G01 Y114.480
G01 Z-1.500 F1200
G01 X96.400 F600 
G01 Y123.480
G01 X87.400
G01 Y120.980
G01 Y116.980
G01 Y114.480
G01 Z-2.000 F1200
G01 X96.400 F600 
G01 Y123.480
G01 X87.400
G01 Y120.980
G01 Y116.980
G01 Y114.480
G01 Z-2.500 F1200
G01 X96.400 F600 
G01 Y123.480
G01 X87.400
G01 Y120.980
G01 Z-2.000
G01 Y116.980
G01 Z-2.500 F1200
G01 Y114.480 F600 
G01 Z-3.000 F1200
G01 X96.400 F600 
G01 Y123.480
G01 X87.400
G01 Y120.980
G01 Z-2.000
G01 Y116.980
G01 Z-3.000 F1200
G01 Y114.480 F600 
G01 Z-3.500 F1200
G01 X96.400 F600 
G01 Y123.480
G01 X87.400
G01 Y120.980
G01 Z-2.000
G01 Y116.980
G01 Z-3.500 F1200
G01 Y114.480 F600 
G01 Z-4.000 F1200
G01 X96.400 F600 
G01 Y123.480
G01 X87.400
G01 Y120.980
G01 Z-2.000
G01 Y116.980
G01 Z-4.000 F1200
G01 Y114.480 F600 
G00 Z4.000
G00 X106.450
G00 Z0.500
G01 Z-0.500 F1200
G01 X115.450 F600 
G01 Y123.480
G01 X106.450
G01 Y120.980
G01 Y116.980
G01 Y114.480
G01 Z-1.000 F1200
G01 X115.450 F600 
G01 Y123.480
G01 X106.450
G01 Y120.980
G01 Y116.980
G01 Y114.480
G01 Z-1.500 F1200
G01 X115.450 F600 
G01 Y123.480
G01 X106.450
G01 Y120.980
G01 Y116.980
G01 Y114.480
G01 Z-2.000 F1200
G01 X115.450 F600 
G01 Y123.480
G01 X106.450
G01 Y120.980
G01 Y116.980
G01 Y114.480
G01 Z-2.500 F1200
G01 X115.450 F600 
G01 Y123.480
G01 X106.450
G01 Y120.980
G01 Z-2.000
G01 Y116.980
G01 Z-2.500 F1200
G01 Y114.480 F600 
G01 Z-3.000 F1200
G01 X115.450 F600 
G01 Y123.480
G01 X106.450
G01 Y120.980
G01 Z-2.000
G01 Y116.980
G01 Z-3.000 F1200
G01 Y114.480 F600 
G01 Z-3.500 F1200
G01 X115.450 F600 
G01 Y123.480
G01 X106.450
G01 Y120.980
G01 Z-2.000
G01 Y116.980
G01 Z-3.500 F1200
G01 Y114.480 F600 
G01 Z-4.000 F1200
G01 X115.450 F600 
G01 Y123.480
G01 X106.450
G01 Y120.980
G01 Z-2.000
G01 Y116.980
G01 Z-4.000 F1200
G01 Y114.480 F600 
G00 Z4.000
G00 Y133.530
G00 Z0.500
G01 Z-0.500 F1200
G01 X115.450 F600 
G01 Y142.530
G01 X106.450
G01 Y140.030
G01 Y136.030
G01 Y133.530
G01 Z-1.000 F1200
G01 X115.450 F600 
G01 Y142.530
G01 X106.450
G01 Y140.030
G01 Y136.030
G01 Y133.530
G01 Z-1.500 F1200
G01 X115.450 F600 
G01 Y142.530
G01 X106.450
G01 Y140.030
G01 Y136.030
G01 Y133.530
G01 Z-2.000 F1200
G01 X115.450 F600 
G01 Y142.530
G01 X106.450
G01 Y140.030
G01 Y136.030
G01 Y133.530
G01 Z-2.500 F1200
G01 X115.450 F600 
G01 Y142.530
G01 X106.450
G01 Y140.030
G01 Z-2.000
G01 Y136.030
G01 Z-2.500 F1200
G01 Y133.530 F600 
G01 Z-3.000 F1200
G01 X115.450 F600 
G01 Y142.530
G01 X106.450
G01 Y140.030
G01 Z-2.000
G01 Y136.030
G01 Z-3.000 F1200
G01 Y133.530 F600 
G01 Z-3.500 F1200
G01 X115.450 F600 
G01 Y142.530
G01 X106.450
G01 Y140.030
G01 Z-2.000
G01 Y136.030
G01 Z-3.500 F1200
G01 Y133.530 F600 
G01 Z-4.000 F1200
G01 X115.450 F600 
G01 Y142.530
G01 X106.450
G01 Y140.030
G01 Z-2.000
G01 Y136.030
G01 Z-4.000 F1200
G01 Y133.530 F600 
G00 Z4.000
G00 X125.500
G00 Z0.500
G01 Z-0.500 F1200
G01 X134.500 F600 
G01 Y142.530
G01 X125.500
G01 Y140.030
G01 Y136.030
G01 Y133.530
G01 Z-1.000 F1200
G01 X134.500 F600 
G01 Y142.530
G01 X125.500
G01 Y140.030
G01 Y136.030
G01 Y133.530
G01 Z-1.500 F1200
G01 X134.500 F600 
G01 Y142.530
G01 X125.500
G01 Y140.030
G01 Y136.030
G01 Y133.530
G01 Z-2.000 F1200
G01 X134.500 F600 
G01 Y142.530
G01 X125.500
G01 Y140.030
G01 Y136.030
G01 Y133.530
G01 Z-2.500 F1200
G01 X134.500 F600 
G01 Y142.530
G01 X125.500
G01 Y140.030
G01 Z-2.000
G01 Y136.030
G01 Z-2.500 F1200
G01 Y133.530 F600 
G01 Z-3.000 F1200
G01 X134.500 F600 
G01 Y142.530
G01 X125.500
G01 Y140.030
G01 Z-2.000
G01 Y136.030
G01 Z-3.000 F1200
G01 Y133.530 F600 
G01 Z-3.500 F1200
G01 X134.500 F600 
G01 Y142.530
G01 X125.500
G01 Y140.030
G01 Z-2.000
G01 Y136.030
G01 Z-3.500 F1200
G01 Y133.530 F600 
G01 Z-4.000 F1200
G01 X134.500 F600 
G01 Y142.530
G01 X125.500
G01 Y140.030
G01 Z-2.000
G01 Y136.030
G01 Z-4.000 F1200
G01 Y133.530 F600 
G00 Z4.000
G00 X144.550
G00 Z0.500
G01 Z-0.500 F1200
G01 X153.550 F600 
G01 Y142.530
G01 X144.550
G01 Y140.030
G01 Y136.030
G01 Y133.530
G01 Z-1.000 F1200
G01 X153.550 F600 
G01 Y142.530
G01 X144.550
G01 Y140.030
G01 Y136.030
G01 Y133.530
G01 Z-1.500 F1200
G01 X153.550 F600 
G01 Y142.530
G01 X144.550
G01 Y140.030
G01 Y136.030
G01 Y133.530
G01 Z-2.000 F1200
G01 X153.550 F600 
G01 Y142.530
G01 X144.550
G01 Y140.030
G01 Y136.030
G01 Y133.530
G01 Z-2.500 F1200
G01 X153.550 F600 
G01 Y142.530
G01 X144.550
G01 Y140.030
G01 Z-2.000
G01 Y136.030
G01 Z-2.500 F1200
G01 Y133.530 F600 
G01 Z-3.000 F1200
G01 X153.550 F600 
G01 Y142.530
G01 X144.550
G01 Y140.030
G01 Z-2.000
G01 Y136.030
G01 Z-3.000 F1200
G01 Y133.530 F600 
G01 Z-3.500 F1200
G01 X153.550 F600 
G01 Y142.530
G01 X144.550
G01 Y140.030
G01 Z-2.000
G01 Y136.030
G01 Z-3.500 F1200
G01 Y133.530 F600 
G01 Z-4.000 F1200
G01 X153.550 F600 
G01 Y142.530
G01 X144.550
G01 Y140.030
G01 Z-2.000
G01 Y136.030
G01 Z-4.000 F1200
G01 Y133.530 F600 
G00 Z4.000
G00 X163.600
G00 Z0.500
G01 Z-0.500 F1200
G01 X172.600 F600 
G01 Y142.530
G01 X163.600
G01 Y140.030
G01 Y136.030
G01 Y133.530
G01 Z-1.000 F1200
G01 X172.600 F600 
G01 Y142.530
G01 X163.600
G01 Y140.030
G01 Y136.030
G01 Y133.530
G01 Z-1.500 F1200
G01 X172.600 F600 
G01 Y142.530
G01 X163.600
G01 Y140.030
G01 Y136.030
G01 Y133.530
G01 Z-2.000 F1200
G01 X172.600 F600 
G01 Y142.530
G01 X163.600
G01 Y140.030
G01 Y136.030
G01 Y133.530
G01 Z-2.500 F1200
G01 X172.600 F600 
G01 Y142.530
G01 X163.600
G01 Y140.030
G01 Z-2.000
G01 Y136.030
G01 Z-2.500 F1200
G01 Y133.530 F600 
G01 Z-3.000 F1200
G01 X172.600 F600 
G01 Y142.530
G01 X163.600
G01 Y140.030
G01 Z-2.000
G01 Y136.030
G01 Z-3.000 F1200
G01 Y133.530 F600 
G01 Z-3.500 F1200
G01 X172.600 F600 
G01 Y142.530
G01 X163.600
G01 Y140.030
G01 Z-2.000
G01 Y136.030
G01 Z-3.500 F1200
G01 Y133.530 F600 
G01 Z-4.000 F1200
G01 X172.600 F600 
G01 Y142.530
G01 X163.600
G01 Y140.030
G01 Z-2.000
G01 Y136.030
G01 Z-4.000 F1200
G01 Y133.530 F600 
G00 Z4.000
G00 X182.650
G00 Z0.500
G01 Z-0.500 F1200
G01 X191.650 F600 
G01 Y142.530
G01 X182.650
G01 Y140.030
G01 Y136.030
G01 Y133.530
G01 Z-1.000 F1200
G01 X191.650 F600 
G01 Y142.530
G01 X182.650
G01 Y140.030
G01 Y136.030
G01 Y133.530
G01 Z-1.500 F1200
G01 X191.650 F600 
G01 Y142.530
G01 X182.650
G01 Y140.030
G01 Y136.030
G01 Y133.530
G01 Z-2.000 F1200
G01 X191.650 F600 
G01 Y142.530
G01 X182.650
G01 Y140.030
G01 Y136.030
G01 Y133.530
G01 Z-2.500 F1200
G01 X191.650 F600 
G01 Y142.530
G01 X182.650
G01 Y140.030
G01 Z-2.000
G01 Y136.030
G01 Z-2.500 F1200
G01 Y133.530 F600 
G01 Z-3.000 F1200
G01 X191.650 F600 
G01 Y142.530
G01 X182.650
G01 Y140.030
G01 Z-2.000
G01 Y136.030
G01 Z-3.000 F1200
G01 Y133.530 F600 
G01 Z-3.500 F1200
G01 X191.650 F600 
G01 Y142.530
G01 X182.650
G01 Y140.030
G01 Z-2.000
G01 Y136.030
G01 Z-3.500 F1200
G01 Y133.530 F600 
G01 Z-4.000 F1200
G01 X191.650 F600 
G01 Y142.530
G01 X182.650
G01 Y140.030
G01 Z-2.000
G01 Y136.030
G01 Z-4.000 F1200
G01 Y133.530 F600 
G00 Z4.000
G00 Y123.480
G00 Z0.500
G01 Z-0.500 F1200
G01 Y120.980 F600 
G01 Y116.980
G01 Y114.480
G01 X191.650
G01 Y123.480
G01 X182.650
G01 Z-1.000 F1200
G01 Y120.980 F600 
G01 Y116.980
G01 Y114.480
G01 X191.650
G01 Y123.480
G01 X182.650
G01 Z-1.500 F1200
G01 Y120.980 F600 
G01 Y116.980
G01 Y114.480
G01 X191.650
G01 Y123.480
G01 X182.650
G01 Z-2.000 F1200
G01 Y120.980 F600 
G01 Y116.980
G01 Y114.480
G01 X191.650
G01 Y123.480
G01 X182.650
G01 Z-2.500 F1200
G01 Y120.980 F600 
G01 Z-2.000
G01 Y116.980
G01 Z-2.500 F1200
G01 Y114.480 F600 
G01 X191.650
G01 Y123.480
G01 X182.650
G01 Z-3.000 F1200
G01 Y120.980 F600 
G01 Z-2.000
G01 Y116.980
G01 Z-3.000 F1200
G01 Y114.480 F600 
G01 X191.650
G01 Y123.480
G01 X182.650
G01 Z-3.500 F1200
G01 Y120.980 F600 
G01 Z-2.000
G01 Y116.980
G01 Z-3.500 F1200
G01 Y114.480 F600 
G01 X191.650
G01 Y123.480
G01 X182.650
G01 Z-4.000 F1200
G01 Y120.980 F600 
G01 Z-2.000
G01 Y116.980
G01 Z-4.000 F1200
G01 Y114.480 F600 
G01 X191.650
G01 Y123.480
G01 X182.650
G00 Z4.000
G00 X172.600
G00 Z0.500
G01 Z-0.500 F1200
G01 X163.600 F600 
G01 Y120.980
G01 Y116.980
G01 Y114.480
G01 X172.600
G01 Y123.480
G01 Z-1.000 F1200
G01 X163.600 F600 
G01 Y120.980
G01 Y116.980
G01 Y114.480
G01 X172.600
G01 Y123.480
G01 Z-1.500 F1200
G01 X163.600 F600 
G01 Y120.980
G01 Y116.980
G01 Y114.480
G01 X172.600
G01 Y123.480
G01 Z-2.000 F1200
G01 X163.600 F600 
G01 Y120.980
G01 Y116.980
G01 Y114.480
G01 X172.600
G01 Y123.480
G01 Z-2.500 F1200
G01 X163.600 F600 
G01 Y120.980
G01 Z-2.000
G01 Y116.980
G01 Z-2.500 F1200
G01 Y114.480 F600 
G01 X172.600
G01 Y123.480
G01 Z-3.000 F1200
G01 X163.600 F600 
G01 Y120.980
G01 Z-2.000
G01 Y116.980
G01 Z-3.000 F1200
G01 Y114.480 F600 
G01 X172.600
G01 Y123.480
G01 Z-3.500 F1200
G01 X163.600 F600 
G01 Y120.980
G01 Z-2.000
G01 Y116.980
G01 Z-3.500 F1200
G01 Y114.480 F600 
G01 X172.600
G01 Y123.480
G01 Z-4.000 F1200
G01 X163.600 F600 
G01 Y120.980
G01 Z-2.000
G01 Y116.980
G01 Z-4.000 F1200
G01 Y114.480 F600 
G01 X172.600
G01 Y123.480
G00 Z4.000
G00 X153.550
G00 Z0.500
G01 Z-0.500 F1200
G01 X144.550 F600 
G01 Y120.980
G01 Y116.980
G01 Y114.480
G01 X153.550
G01 Y123.480
G01 Z-1.000 F1200
G01 X144.550 F600 
G01 Y120.980
G01 Y116.980
G01 Y114.480
G01 X153.550
G01 Y123.480
G01 Z-1.500 F1200
G01 X144.550 F600 
G01 Y120.980
G01 Y116.980
G01 Y114.480
G01 X153.550
G01 Y123.480
G01 Z-2.000 F1200
G01 X144.550 F600 
G01 Y120.980
G01 Y116.980
G01 Y114.480
G01 X153.550
G01 Y123.480
G01 Z-2.500 F1200
G01 X144.550 F600 
G01 Y120.980
G01 Z-2.000
G01 Y116.980
G01 Z-2.500 F1200
G01 Y114.480 F600 
G01 X153.550
G01 Y123.480
G01 Z-3.000 F1200
G01 X144.550 F600 
G01 Y120.980
G01 Z-2.000
G01 Y116.980
G01 Z-3.000 F1200
G01 Y114.480 F600 
G01 X153.550
G01 Y123.480
G01 Z-3.500 F1200
G01 X144.550 F600 
G01 Y120.980
G01 Z-2.000
G01 Y116.980
G01 Z-3.500 F1200
G01 Y114.480 F600 
G01 X153.550
G01 Y123.480
G01 Z-4.000 F1200
G01 X144.550 F600 
G01 Y120.980
G01 Z-2.000
G01 Y116.980
G01 Z-4.000 F1200
G01 Y114.480 F600 
G01 X153.550
G01 Y123.480
G00 Z4.000
G00 X134.500
G00 Z0.500
G01 Z-0.500 F1200
G01 X125.500 F600 
G01 Y120.980
G01 Y116.980
G01 Y114.480
G01 X134.500
G01 Y123.480
G01 Z-1.000 F1200
G01 X125.500 F600 
G01 Y120.980
G01 Y116.980
G01 Y114.480
G01 X134.500
G01 Y123.480
G01 Z-1.500 F1200
G01 X125.500 F600 
G01 Y120.980
G01 Y116.980
G01 Y114.480
G01 X134.500
G01 Y123.480
G01 Z-2.000 F1200
G01 X125.500 F600 
G01 Y120.980
G01 Y116.980
G01 Y114.480
G01 X134.500
G01 Y123.480
G01 Z-2.500 F1200
G01 X125.500 F600 
G01 Y120.980
G01 Z-2.000
G01 Y116.980
G01 Z-2.500 F1200
G01 Y114.480 F600 
G01 X134.500
G01 Y123.480
G01 Z-3.000 F1200
G01 X125.500 F600 
G01 Y120.980
G01 Z-2.000
G01 Y116.980
G01 Z-3.000 F1200
G01 Y114.480 F600 
G01 X134.500
G01 Y123.480
G01 Z-3.500 F1200
G01 X125.500 F600 
G01 Y120.980
G01 Z-2.000
G01 Y116.980
G01 Z-3.500 F1200
G01 Y114.480 F600 
G01 X134.500
G01 Y123.480
G01 Z-4.000 F1200
G01 X125.500 F600 
G01 Y120.980
G01 Z-2.000
G01 Y116.980
G01 Z-4.000 F1200
G01 Y114.480 F600 
G01 X134.500
G01 Y123.480
G00 Z4.000
G00 Y104.430
G00 Z0.500
G01 Z-0.500 F1200
G01 X125.500 F600 
G01 Y101.930
G01 Y97.930
G01 Y95.430
G01 X134.500
G01 Y104.430
G01 Z-1.000 F1200
G01 X125.500 F600 
G01 Y101.930
G01 Y97.930
G01 Y95.430
G01 X134.500
G01 Y104.430
G01 Z-1.500 F1200
G01 X125.500 F600 
G01 Y101.930
G01 Y97.930
G01 Y95.430
G01 X134.500
G01 Y104.430
G01 Z-2.000 F1200
G01 X125.500 F600 
G01 Y101.930
G01 Y97.930
G01 Y95.430
G01 X134.500
G01 Y104.430
G01 Z-2.500 F1200
G01 X125.500 F600 
G01 Y101.930
G01 Z-2.000
G01 Y97.930
G01 Z-2.500 F1200
G01 Y95.430 F600 
G01 X134.500
G01 Y104.430
G01 Z-3.000 F1200
G01 X125.500 F600 
G01 Y101.930
G01 Z-2.000
G01 Y97.930
G01 Z-3.000 F1200
G01 Y95.430 F600 
G01 X134.500
G01 Y104.430
G01 Z-3.500 F1200
G01 X125.500 F600 
G01 Y101.930
G01 Z-2.000
G01 Y97.930
G01 Z-3.500 F1200
G01 Y95.430 F600 
G01 X134.500
G01 Y104.430
G01 Z-4.000 F1200
G01 X125.500 F600 
G01 Y101.930
G01 Z-2.000
G01 Y97.930
G01 Z-4.000 F1200
G01 Y95.430 F600 
G01 X134.500
G01 Y104.430
G00 Z4.000
G00 X115.450
G00 Z0.500
G01 Z-0.500 F1200
G01 X106.450 F600 
G01 Y101.930
G01 Y97.930
G01 Y95.430
G01 X115.450
G01 Y104.430
G01 Z-1.000 F1200
G01 X106.450 F600 
G01 Y101.930
G01 Y97.930
G01 Y95.430
G01 X115.450
G01 Y104.430
G01 Z-1.500 F1200
G01 X106.450 F600 
G01 Y101.930
G01 Y97.930
G01 Y95.430
G01 X115.450
G01 Y104.430
G01 Z-2.000 F1200
G01 X106.450 F600 
G01 Y101.930
G01 Y97.930
G01 Y95.430
G01 X115.450
G01 Y104.430
G01 Z-2.500 F1200
G01 X106.450 F600 
G01 Y101.930
G01 Z-2.000
G01 Y97.930
G01 Z-2.500 F1200
G01 Y95.430 F600 
G01 X115.450
G01 Y104.430
G01 Z-3.000 F1200
G01 X106.450 F600 
G01 Y101.930
G01 Z-2.000
G01 Y97.930
G01 Z-3.000 F1200
G01 Y95.430 F600 
G01 X115.450
G01 Y104.430
G01 Z-3.500 F1200
G01 X106.450 F600 
G01 Y101.930
G01 Z-2.000
G01 Y97.930
G01 Z-3.500 F1200
G01 Y95.430 F600 
G01 X115.450
G01 Y104.430
G01 Z-4.000 F1200
G01 X106.450 F600 
G01 Y101.930
G01 Z-2.000
G01 Y97.930
G01 Z-4.000 F1200
G01 Y95.430 F600 
G01 X115.450
G01 Y104.430
G00 Z4.000
G00 X96.400
G00 Z0.500
G01 Z-0.500 F1200
G01 X87.400 F600 
G01 Y101.930
G01 Y97.930
G01 Y95.430
G01 X96.400
G01 Y104.430
G01 Z-1.000 F1200
G01 X87.400 F600 
G01 Y101.930
G01 Y97.930
G01 Y95.430
G01 X96.400
G01 Y104.430
G01 Z-1.500 F1200
G01 X87.400 F600 
G01 Y101.930
G01 Y97.930
G01 Y95.430
G01 X96.400
G01 Y104.430
G01 Z-2.000 F1200
G01 X87.400 F600 
G01 Y101.930
G01 Y97.930
G01 Y95.430
G01 X96.400
G01 Y104.430
G01 Z-2.500 F1200
G01 X87.400 F600 
G01 Y101.930
G01 Z-2.000
G01 Y97.930
G01 Z-2.500 F1200
G01 Y95.430 F600 
G01 X96.400
G01 Y104.430
G01 Z-3.000 F1200
G01 X87.400 F600 
G01 Y101.930
G01 Z-2.000
G01 Y97.930
G01 Z-3.000 F1200
G01 Y95.430 F600 
G01 X96.400
G01 Y104.430
G01 Z-3.500 F1200
G01 X87.400 F600 
G01 Y101.930
G01 Z-2.000
G01 Y97.930
G01 Z-3.500 F1200
G01 Y95.430 F600 
G01 X96.400
G01 Y104.430
G01 Z-4.000 F1200
G01 X87.400 F600 
G01 Y101.930
G01 Z-2.000
G01 Y97.930
G01 Z-4.000 F1200
G01 Y95.430 F600 
G01 X96.400
G01 Y104.430
G00 Z4.000
G00 Y85.380
G00 Z0.500
G01 Z-0.500 F1200
G01 X87.400 F600 
G01 Y82.880
G01 Y78.880
G01 Y76.380
G01 X96.400
G01 Y85.380
G01 Z-1.000 F1200
G01 X87.400 F600 
G01 Y82.880
G01 Y78.880
G01 Y76.380
G01 X96.400
G01 Y85.380
G01 Z-1.500 F1200
G01 X87.400 F600 
G01 Y82.880
G01 Y78.880
G01 Y76.380
G01 X96.400
G01 Y85.380
G01 Z-2.000 F1200
G01 X87.400 F600 
G01 Y82.880
G01 Y78.880
G01 Y76.380
G01 X96.400
G01 Y85.380
G01 Z-2.500 F1200
G01 X87.400 F600 
G01 Y82.880
G01 Z-2.000
G01 Y78.880
G01 Z-2.500 F1200
G01 Y76.380 F600 
G01 X96.400
G01 Y85.380
G01 Z-3.000 F1200
G01 X87.400 F600 
G01 Y82.880
G01 Z-2.000
G01 Y78.880
G01 Z-3.000 F1200
G01 Y76.380 F600 
G01 X96.400
G01 Y85.380
G01 Z-3.500 F1200
G01 X87.400 F600 
G01 Y82.880
G01 Z-2.000
G01 Y78.880
G01 Z-3.500 F1200
G01 Y76.380 F600 
G01 X96.400
G01 Y85.380
G01 Z-4.000 F1200
G01 X87.400 F600 
G01 Y82.880
G01 Z-2.000
G01 Y78.880
G01 Z-4.000 F1200
G01 Y76.380 F600 
G01 X96.400
G01 Y85.380
G00 Z4.000
G00 X106.450
G00 Z0.500
G01 Z-0.500 F1200
G01 Y82.880 F600 
G01 Y78.880
G01 Y76.380
G01 X115.450
G01 Y85.380
G01 X106.450
G01 Z-1.000 F1200
G01 Y82.880 F600 
G01 Y78.880
G01 Y76.380
G01 X115.450
G01 Y85.380
G01 X106.450
G01 Z-1.500 F1200
G01 Y82.880 F600 
G01 Y78.880
G01 Y76.380
G01 X115.450
G01 Y85.380
G01 X106.450
G01 Z-2.000 F1200
G01 Y82.880 F600 
G01 Y78.880
G01 Y76.380
G01 X115.450
G01 Y85.380
G01 X106.450
G01 Z-2.500 F1200
G01 Y82.880 F600 
G01 Z-2.000
G01 Y78.880
G01 Z-2.500 F1200
G01 Y76.380 F600 
G01 X115.450
G01 Y85.380
G01 X106.450
G01 Z-3.000 F1200
G01 Y82.880 F600 
G01 Z-2.000
G01 Y78.880
G01 Z-3.000 F1200
G01 Y76.380 F600 
G01 X115.450
G01 Y85.380
G01 X106.450
G01 Z-3.500 F1200
G01 Y82.880 F600 
G01 Z-2.000
G01 Y78.880
G01 Z-3.500 F1200
G01 Y76.380 F600 
G01 X115.450
G01 Y85.380
G01 X106.450
G01 Z-4.000 F1200
G01 Y82.880 F600 
G01 Z-2.000
G01 Y78.880
G01 Z-4.000 F1200
G01 Y76.380 F600 
G01 X115.450
G01 Y85.380
G01 X106.450
G00 Z4.000
G00 X125.500
G00 Z0.500
G01 Z-0.500 F1200
G01 Y82.880 F600 
G01 Y78.880
G01 Y76.380
G01 X134.500
G01 Y85.380
G01 X125.500
G01 Z-1.000 F1200
G01 Y82.880 F600 
G01 Y78.880
G01 Y76.380
G01 X134.500
G01 Y85.380
G01 X125.500
G01 Z-1.500 F1200
G01 Y82.880 F600 
G01 Y78.880
G01 Y76.380
G01 X134.500
G01 Y85.380
G01 X125.500
G01 Z-2.000 F1200
G01 Y82.880 F600 
G01 Y78.880
G01 Y76.380
G01 X134.500
G01 Y85.380
G01 X125.500
G01 Z-2.500 F1200
G01 Y82.880 F600 
G01 Z-2.000
G01 Y78.880
G01 Z-2.500 F1200
G01 Y76.380 F600 
G01 X134.500
G01 Y85.380
G01 X125.500
G01 Z-3.000 F1200
G01 Y82.880 F600 
G01 Z-2.000
G01 Y78.880
G01 Z-3.000 F1200
G01 Y76.380 F600 
G01 X134.500
G01 Y85.380
G01 X125.500
G01 Z-3.500 F1200
G01 Y82.880 F600 
G01 Z-2.000
G01 Y78.880
G01 Z-3.500 F1200
G01 Y76.380 F600 
G01 X134.500
G01 Y85.380
G01 X125.500
G01 Z-4.000 F1200
G01 Y82.880 F600 
G01 Z-2.000
G01 Y78.880
G01 Z-4.000 F1200
G01 Y76.380 F600 
G01 X134.500
G01 Y85.380
G01 X125.500
G00 Z4.000
G00 X144.550
G00 Z0.500
G01 Z-0.500 F1200
G01 Y82.880 F600 
G01 Y78.880
G01 Y76.380
G01 X153.550
G01 Y85.380
G01 X144.550
G01 Z-1.000 F1200
G01 Y82.880 F600 
G01 Y78.880
G01 Y76.380
G01 X153.550
G01 Y85.380
G01 X144.550
G01 Z-1.500 F1200
G01 Y82.880 F600 
G01 Y78.880
G01 Y76.380
G01 X153.550
G01 Y85.380
G01 X144.550
G01 Z-2.000 F1200
G01 Y82.880 F600 
G01 Y78.880
G01 Y76.380
G01 X153.550
G01 Y85.380
G01 X144.550
G01 Z-2.500 F1200
G01 Y82.880 F600 
G01 Z-2.000
G01 Y78.880
G01 Z-2.500 F1200
G01 Y76.380 F600 
G01 X153.550
G01 Y85.380
G01 X144.550
G01 Z-3.000 F1200
G01 Y82.880 F600 
G01 Z-2.000
G01 Y78.880
G01 Z-3.000 F1200
G01 Y76.380 F600 
G01 X153.550
G01 Y85.380
G01 X144.550
G01 Z-3.500 F1200
G01 Y82.880 F600 
G01 Z-2.000
G01 Y78.880
G01 Z-3.500 F1200
G01 Y76.380 F600 
G01 X153.550
G01 Y85.380
G01 X144.550
G01 Z-4.000 F1200
G01 Y82.880 F600 
G01 Z-2.000
G01 Y78.880
G01 Z-4.000 F1200
G01 Y76.380 F600 
G01 X153.550
G01 Y85.380
G01 X144.550
G00 Z4.000
G00 Y95.430
G00 Z0.500
G01 Z-0.500 F1200
G01 X153.550 F600 
G01 Y104.430
G01 X144.550
G01 Y101.930
G01 Y97.930
G01 Y95.430
G01 Z-1.000 F1200
G01 X153.550 F600 
G01 Y104.430
G01 X144.550
G01 Y101.930
G01 Y97.930
G01 Y95.430
G01 Z-1.500 F1200
G01 X153.550 F600 
G01 Y104.430
G01 X144.550
G01 Y101.930
G01 Y97.930
G01 Y95.430
G01 Z-2.000 F1200
G01 X153.550 F600 
G01 Y104.430
G01 X144.550
G01 Y101.930
G01 Y97.930
G01 Y95.430
G01 Z-2.500 F1200
G01 X153.550 F600 
G01 Y104.430
G01 X144.550
G01 Y101.930
G01 Z-2.000
G01 Y97.930
G01 Z-2.500 F1200
G01 Y95.430 F600 
G01 Z-3.000 F1200
G01 X153.550 F600 
G01 Y104.430
G01 X144.550
G01 Y101.930
G01 Z-2.000
G01 Y97.930
G01 Z-3.000 F1200
G01 Y95.430 F600 
G01 Z-3.500 F1200
G01 X153.550 F600 
G01 Y104.430
G01 X144.550
G01 Y101.930
G01 Z-2.000
G01 Y97.930
G01 Z-3.500 F1200
G01 Y95.430 F600 
G01 Z-4.000 F1200
G01 X153.550 F600 
G01 Y104.430
G01 X144.550
G01 Y101.930
G01 Z-2.000
G01 Y97.930
G01 Z-4.000 F1200
G01 Y95.430 F600 
G00 Z4.000
G00 X163.600
G00 Z0.500
G01 Z-0.500 F1200
G01 X172.600 F600 
G01 Y104.430
G01 X163.600
G01 Y101.930
G01 Y97.930
G01 Y95.430
G01 Z-1.000 F1200
G01 X172.600 F600 
G01 Y104.430
G01 X163.600
G01 Y101.930
G01 Y97.930
G01 Y95.430
G01 Z-1.500 F1200
G01 X172.600 F600 
G01 Y104.430
G01 X163.600
G01 Y101.930
G01 Y97.930
G01 Y95.430
G01 Z-2.000 F1200
G01 X172.600 F600 
G01 Y104.430
G01 X163.600
G01 Y101.930
G01 Y97.930
G01 Y95.430
G01 Z-2.500 F1200
G01 X172.600 F600 
G01 Y104.430
G01 X163.600
G01 Y101.930
G01 Z-2.000
G01 Y97.930
G01 Z-2.500 F1200
G01 Y95.430 F600 
G01 Z-3.000 F1200
G01 X172.600 F600 
G01 Y104.430
G01 X163.600
G01 Y101.930
G01 Z-2.000
G01 Y97.930
G01 Z-3.000 F1200
G01 Y95.430 F600 
G01 Z-3.500 F1200
G01 X172.600 F600 
G01 Y104.430
G01 X163.600
G01 Y101.930
G01 Z-2.000
G01 Y97.930
G01 Z-3.500 F1200
G01 Y95.430 F600 
G01 Z-4.000 F1200
G01 X172.600 F600 
G01 Y104.430
G01 X163.600
G01 Y101.930
G01 Z-2.000
G01 Y97.930
G01 Z-4.000 F1200
G01 Y95.430 F600 
G00 Z4.000
G00 X182.650
G00 Z0.500
G01 Z-0.500 F1200
G01 X191.650 F600 
G01 Y104.430
G01 X182.650
G01 Y101.930
G01 Y97.930
G01 Y95.430
G01 Z-1.000 F1200
G01 X191.650 F600 
G01 Y104.430
G01 X182.650
G01 Y101.930
G01 Y97.930
G01 Y95.430
G01 Z-1.500 F1200
G01 X191.650 F600 
G01 Y104.430
G01 X182.650
G01 Y101.930
G01 Y97.930
G01 Y95.430
G01 Z-2.000 F1200
G01 X191.650 F600 
G01 Y104.430
G01 X182.650
G01 Y101.930
G01 Y97.930
G01 Y95.430
G01 Z-2.500 F1200
G01 X191.650 F600 
G01 Y104.430
G01 X182.650
G01 Y101.930
G01 Z-2.000
G01 Y97.930
G01 Z-2.500 F1200
G01 Y95.430 F600 
G01 Z-3.000 F1200
G01 X191.650 F600 
G01 Y104.430
G01 X182.650
G01 Y101.930
G01 Z-2.000
G01 Y97.930
G01 Z-3.000 F1200
G01 Y95.430 F600 
G01 Z-3.500 F1200
G01 X191.650 F600 
G01 Y104.430
G01 X182.650
G01 Y101.930
G01 Z-2.000
G01 Y97.930
G01 Z-3.500 F1200
G01 Y95.430 F600 
G01 Z-4.000 F1200
G01 X191.650 F600 
G01 Y104.430
G01 X182.650
G01 Y101.930
G01 Z-2.000
G01 Y97.930
G01 Z-4.000 F1200
G01 Y95.430 F600 
G00 Z4.000
G00 Y85.380
G00 Z0.500
G01 Z-0.500 F1200
G01 Y82.880 F600 
G01 Y78.880
G01 Y76.380
G01 X191.650
G01 Y85.380
G01 X182.650
G01 Z-1.000 F1200
G01 Y82.880 F600 
G01 Y78.880
G01 Y76.380
G01 X191.650
G01 Y85.380
G01 X182.650
G01 Z-1.500 F1200
G01 Y82.880 F600 
G01 Y78.880
G01 Y76.380
G01 X191.650
G01 Y85.380
G01 X182.650
G01 Z-2.000 F1200
G01 Y82.880 F600 
G01 Y78.880
G01 Y76.380
G01 X191.650
G01 Y85.380
G01 X182.650
G01 Z-2.500 F1200
G01 Y82.880 F600 
G01 Z-2.000
G01 Y78.880
G01 Z-2.500 F1200
G01 Y76.380 F600 
G01 X191.650
G01 Y85.380
G01 X182.650
G01 Z-3.000 F1200
G01 Y82.880 F600 
G01 Z-2.000
G01 Y78.880
G01 Z-3.000 F1200
G01 Y76.380 F600 
G01 X191.650
G01 Y85.380
G01 X182.650
G01 Z-3.500 F1200
G01 Y82.880 F600 
G01 Z-2.000
G01 Y78.880
G01 Z-3.500 F1200
G01 Y76.380 F600 
G01 X191.650
G01 Y85.380
G01 X182.650
G01 Z-4.000 F1200
G01 Y82.880 F600 
G01 Z-2.000
G01 Y78.880
G01 Z-4.000 F1200
G01 Y76.380 F600 
G01 X191.650
G01 Y85.380
G01 X182.650
G00 Z4.000
G00 X172.600
G00 Z0.500
G01 Z-0.500 F1200
G01 X163.600 F600 
G01 Y82.880
G01 Y78.880
G01 Y76.380
G01 X172.600
G01 Y85.380
G01 Z-1.000 F1200
G01 X163.600 F600 
G01 Y82.880
G01 Y78.880
G01 Y76.380
G01 X172.600
G01 Y85.380
G01 Z-1.500 F1200
G01 X163.600 F600 
G01 Y82.880
G01 Y78.880
G01 Y76.380
G01 X172.600
G01 Y85.380
G01 Z-2.000 F1200
G01 X163.600 F600 
G01 Y82.880
G01 Y78.880
G01 Y76.380
G01 X172.600
G01 Y85.380
G01 Z-2.500 F1200
G01 X163.600 F600 
G01 Y82.880
G01 Z-2.000
G01 Y78.880
G01 Z-2.500 F1200
G01 Y76.380 F600 
G01 X172.600
G01 Y85.380
G01 Z-3.000 F1200
G01 X163.600 F600 
G01 Y82.880
G01 Z-2.000
G01 Y78.880
G01 Z-3.000 F1200
G01 Y76.380 F600 
G01 X172.600
G01 Y85.380
G01 Z-3.500 F1200
G01 X163.600 F600 
G01 Y82.880
G01 Z-2.000
G01 Y78.880
G01 Z-3.500 F1200
G01 Y76.380 F600 
G01 X172.600
G01 Y85.380
G01 Z-4.000 F1200
G01 X163.600 F600 
G01 Y82.880
G01 Z-2.000
G01 Y78.880
G01 Z-4.000 F1200
G01 Y76.380 F600 
G01 X172.600
G01 Y85.380
G00 Z4.000
G00 Y66.330
G00 Z0.500
G01 Z-0.500 F1200
G01 X163.600 F600 
G01 Y63.830
G01 Y59.830
G01 Y57.330
G01 X172.600
G01 Y66.330
G01 Z-1.000 F1200
G01 X163.600 F600 
G01 Y63.830
G01 Y59.830
G01 Y57.330
G01 X172.600
G01 Y66.330
G01 Z-1.500 F1200
G01 X163.600 F600 
G01 Y63.830
G01 Y59.830
G01 Y57.330
G01 X172.600
G01 Y66.330
G01 Z-2.000 F1200
G01 X163.600 F600 
G01 Y63.830
G01 Y59.830
G01 Y57.330
G01 X172.600
G01 Y66.330
G01 Z-2.500 F1200
G01 X163.600 F600 
G01 Y63.830
G01 Z-2.000
G01 Y59.830
G01 Z-2.500 F1200
G01 Y57.330 F600 
G01 X172.600
G01 Y66.330
G01 Z-3.000 F1200
G01 X163.600 F600 
G01 Y63.830
G01 Z-2.000
G01 Y59.830
G01 Z-3.000 F1200
G01 Y57.330 F600 
G01 X172.600
G01 Y66.330
G01 Z-3.500 F1200
G01 X163.600 F600 
G01 Y63.830
G01 Z-2.000
G01 Y59.830
G01 Z-3.500 F1200
G01 Y57.330 F600 
G01 X172.600
G01 Y66.330
G01 Z-4.000 F1200
G01 X163.600 F600 
G01 Y63.830
G01 Z-2.000
G01 Y59.830
G01 Z-4.000 F1200
G01 Y57.330 F600 
G01 X172.600
G01 Y66.330
G00 Z4.000
G00 X153.550
G00 Z0.500
G01 Z-0.500 F1200
G01 X144.550 F600 
G01 Y63.830
G01 Y59.830
G01 Y57.330
G01 X153.550
G01 Y66.330
G01 Z-1.000 F1200
G01 X144.550 F600 
G01 Y63.830
G01 Y59.830
G01 Y57.330
G01 X153.550
G01 Y66.330
G01 Z-1.500 F1200
G01 X144.550 F600 
G01 Y63.830
G01 Y59.830
G01 Y57.330
G01 X153.550
G01 Y66.330
G01 Z-2.000 F1200
G01 X144.550 F600 
G01 Y63.830
G01 Y59.830
G01 Y57.330
G01 X153.550
G01 Y66.330
G01 Z-2.500 F1200
G01 X144.550 F600 
G01 Y63.830
G01 Z-2.000
G01 Y59.830
G01 Z-2.500 F1200
G01 Y57.330 F600 
G01 X153.550
G01 Y66.330
G01 Z-3.000 F1200
G01 X144.550 F600 
G01 Y63.830
G01 Z-2.000
G01 Y59.830
G01 Z-3.000 F1200
G01 Y57.330 F600 
G01 X153.550
G01 Y66.330
G01 Z-3.500 F1200
G01 X144.550 F600 
G01 Y63.830
G01 Z-2.000
G01 Y59.830
G01 Z-3.500 F1200
G01 Y57.330 F600 
G01 X153.550
G01 Y66.330
G01 Z-4.000 F1200
G01 X144.550 F600 
G01 Y63.830
G01 Z-2.000
G01 Y59.830
G01 Z-4.000 F1200
G01 Y57.330 F600 
G01 X153.550
G01 Y66.330
G00 Z4.000
G00 X134.500
G00 Z0.500
G01 Z-0.500 F1200
G01 X125.500 F600 
G01 Y63.830
G01 Y59.830
G01 Y57.330
G01 X134.500
G01 Y66.330
G01 Z-1.000 F1200
G01 X125.500 F600 
G01 Y63.830
G01 Y59.830
G01 Y57.330
G01 X134.500
G01 Y66.330
G01 Z-1.500 F1200
G01 X125.500 F600 
G01 Y63.830
G01 Y59.830
G01 Y57.330
G01 X134.500
G01 Y66.330
G01 Z-2.000 F1200
G01 X125.500 F600 
G01 Y63.830
G01 Y59.830
G01 Y57.330
G01 X134.500
G01 Y66.330
G01 Z-2.500 F1200
G01 X125.500 F600 
G01 Y63.830
G01 Z-2.000
G01 Y59.830
G01 Z-2.500 F1200
G01 Y57.330 F600 
G01 X134.500
G01 Y66.330
G01 Z-3.000 F1200
G01 X125.500 F600 
G01 Y63.830
G01 Z-2.000
G01 Y59.830
G01 Z-3.000 F1200
G01 Y57.330 F600 
G01 X134.500
G01 Y66.330
G01 Z-3.500 F1200
G01 X125.500 F600 
G01 Y63.830
G01 Z-2.000
G01 Y59.830
G01 Z-3.500 F1200
G01 Y57.330 F600 
G01 X134.500
G01 Y66.330
G01 Z-4.000 F1200
G01 X125.500 F600 
G01 Y63.830
G01 Z-2.000
G01 Y59.830
G01 Z-4.000 F1200
G01 Y57.330 F600 
G01 X134.500
G01 Y66.330
G00 Z4.000
G00 X115.450
G00 Z0.500
G01 Z-0.500 F1200
G01 X106.450 F600 
G01 Y63.830
G01 Y59.830
G01 Y57.330
G01 X115.450
G01 Y66.330
G01 Z-1.000 F1200
G01 X106.450 F600 
G01 Y63.830
G01 Y59.830
G01 Y57.330
G01 X115.450
G01 Y66.330
G01 Z-1.500 F1200
G01 X106.450 F600 
G01 Y63.830
G01 Y59.830
G01 Y57.330
G01 X115.450
G01 Y66.330
G01 Z-2.000 F1200
G01 X106.450 F600 
G01 Y63.830
G01 Y59.830
G01 Y57.330
G01 X115.450
G01 Y66.330
G01 Z-2.500 F1200
G01 X106.450 F600 
G01 Y63.830
G01 Z-2.000
G01 Y59.830
G01 Z-2.500 F1200
G01 Y57.330 F600 
G01 X115.450
G01 Y66.330
G01 Z-3.000 F1200
G01 X106.450 F600 
G01 Y63.830
G01 Z-2.000
G01 Y59.830
G01 Z-3.000 F1200
G01 Y57.330 F600 
G01 X115.450
G01 Y66.330
G01 Z-3.500 F1200
G01 X106.450 F600 
G01 Y63.830
G01 Z-2.000
G01 Y59.830
G01 Z-3.500 F1200
G01 Y57.330 F600 
G01 X115.450
G01 Y66.330
G01 Z-4.000 F1200
G01 X106.450 F600 
G01 Y63.830
G01 Z-2.000
G01 Y59.830
G01 Z-4.000 F1200
G01 Y57.330 F600 
G01 X115.450
G01 Y66.330
G00 Z4.000
G00 X96.400
G00 Z0.500
G01 Z-0.500 F1200
G01 X87.400 F600 
G01 Y63.830
G01 Y59.830
G01 Y57.330
G01 X96.400
G01 Y66.330
G01 Z-1.000 F1200
G01 X87.400 F600 
G01 Y63.830
G01 Y59.830
G01 Y57.330
G01 X96.400
G01 Y66.330
G01 Z-1.500 F1200
G01 X87.400 F600 
G01 Y63.830
G01 Y59.830
G01 Y57.330
G01 X96.400
G01 Y66.330
G01 Z-2.000 F1200
G01 X87.400 F600 
G01 Y63.830
G01 Y59.830
G01 Y57.330
G01 X96.400
G01 Y66.330
G01 Z-2.500 F1200
G01 X87.400 F600 
G01 Y63.830
G01 Z-2.000
G01 Y59.830
G01 Z-2.500 F1200
G01 Y57.330 F600 
G01 X96.400
G01 Y66.330
G01 Z-3.000 F1200
G01 X87.400 F600 
G01 Y63.830
G01 Z-2.000
G01 Y59.830
G01 Z-3.000 F1200
G01 Y57.330 F600 
G01 X96.400
G01 Y66.330
G01 Z-3.500 F1200
G01 X87.400 F600 
G01 Y63.830
G01 Z-2.000
G01 Y59.830
G01 Z-3.500 F1200
G01 Y57.330 F600 
G01 X96.400
G01 Y66.330
G01 Z-4.000 F1200
G01 X87.400 F600 
G01 Y63.830
G01 Z-2.000
G01 Y59.830
G01 Z-4.000 F1200
G01 Y57.330 F600 
G01 X96.400
G01 Y66.330
G00 Z4.000
G00 Y133.530
G00 Z0.500
G01 Z-0.500 F1200
G01 Y136.030 F600 
G01 Y140.030
G01 Y142.530
G01 X68.300
G01 Y140.030
G01 Y136.030
G01 Y133.530
G01 X96.400
G01 Z-1.000 F1200
G01 Y136.030 F600 
G01 Y140.030
G01 Y142.530
G01 X68.300
G01 Y140.030
G01 Y136.030
G01 Y133.530
G01 X96.400
G01 Z-1.500 F1200
G01 Y136.030 F600 
G01 Y140.030
G01 Y142.530
G01 X68.300
G01 Y140.030
G01 Y136.030
G01 Y133.530
G01 X96.400
G01 Z-2.000 F1200
G01 Y136.030 F600 
G01 Y140.030
G01 Y142.530
G01 X68.300
G01 Y140.030
G01 Y136.030
G01 Y133.530
G01 X96.400
G01 Z-2.500 F1200
G01 Y136.030 F600 
G01 Z-2.000
G01 Y140.030
G01 Z-2.500 F1200
G01 Y142.530 F600 
G01 X68.300
G01 Y140.030
G01 Z-2.000
G01 Y136.030
G01 Z-2.500 F1200
G01 Y133.530 F600 
G01 X96.400
G01 Z-3.000 F1200
G01 Y136.030 F600 
G01 Z-2.000
G01 Y140.030
G01 Z-3.000 F1200
G01 Y142.530 F600 
G01 X68.300
G01 Y140.030
G01 Z-2.000
G01 Y136.030
G01 Z-3.000 F1200
G01 Y133.530 F600 
G01 X96.400
G01 Z-3.500 F1200
G01 Y136.030 F600 
G01 Z-2.000
G01 Y140.030
G01 Z-3.500 F1200
G01 Y142.530 F600 
G01 X68.300
G01 Y140.030
G01 Z-2.000
G01 Y136.030
G01 Z-3.500 F1200
G01 Y133.530 F600 
G01 X96.400
G01 Z-4.000 F1200
G01 Y136.030 F600 
G01 Z-2.000
G01 Y140.030
G01 Z-4.000 F1200
G01 Y142.530 F600 
G01 X68.300
G01 Y140.030
G01 Z-2.000
G01 Y136.030
G01 Z-4.000 F1200
G01 Y133.530 F600 
G01 X96.400
G00 Z4.000
G00 X182.650 Y66.330
G00 Z0.500
G01 Z-0.500 F1200
G01 Y63.830 F600 
G01 Y59.830
G01 Y57.330
G01 X191.650
G01 Y66.330
G01 X182.650
G01 Z-1.000 F1200
G01 Y63.830 F600 
G01 Y59.830
G01 Y57.330
G01 X191.650
G01 Y66.330
G01 X182.650
G01 Z-1.500 F1200
G01 Y63.830 F600 
G01 Y59.830
G01 Y57.330
G01 X191.650
G01 Y66.330
G01 X182.650
G01 Z-2.000 F1200
G01 Y63.830 F600 
G01 Y59.830
G01 Y57.330
G01 X191.650
G01 Y66.330
G01 X182.650
G01 Z-2.500 F1200
G01 Y63.830 F600 
G01 Z-2.000
G01 Y59.830
G01 Z-2.500 F1200
G01 Y57.330 F600 
G01 X191.650
G01 Y66.330
G01 X182.650
G01 Z-3.000 F1200
G01 Y63.830 F600 
G01 Z-2.000
G01 Y59.830
G01 Z-3.000 F1200
G01 Y57.330 F600 
G01 X191.650
G01 Y66.330
G01 X182.650
G01 Z-3.500 F1200
G01 Y63.830 F600 
G01 Z-2.000
G01 Y59.830
G01 Z-3.500 F1200
G01 Y57.330 F600 
G01 X191.650
G01 Y66.330
G01 X182.650
G01 Z-4.000 F1200
G01 Y63.830 F600 
G01 Z-2.000
G01 Y59.830
G01 Z-4.000 F1200
G01 Y57.330 F600 
G01 X191.650
G01 Y66.330
G01 X182.650
G00 Z4.000
G00 X205.275 Y59.073
G00 Z0.500
G01 Z-0.500 F1200
G01 Y49.193 F600 
G02 X205.2333 Y48.5564 I-5.4998 J0.0407
G02 X205.0928 Y47.8501 I-5.453 J0.7175
G02 X204.8613 Y47.1682 I-5.3127 J1.4232
G02 X204.5428 Y46.5223 I-5.0815 J2.1044
G02 X204.1427 Y45.9235 I-4.7633 J2.7497
G02 X203.6679 Y45.3821 I-4.3637 J3.3479
G02 X203.1265 Y44.9073 I-3.8893 J3.8888
G02 X202.5277 Y44.5072 I-3.3485 J4.3632
G02 X201.8818 Y44.1887 I-2.7503 J4.763
G02 X201.1999 Y43.9572 I-2.1051 J5.0812
G02 X200.4936 Y43.8167 I-1.4238 J5.3125
G02 X199.8568 Y43.775 I-0.6775 J5.4581
G01 X170.726
G01 X166.726
G01 X112.854
G01 X108.854
G01 X74.845
G01 X70.845
G01 X60.143
G02 X59.5064 Y43.8167 I0.0407 J5.4998
G02 X58.8001 Y43.9572 I0.7175 J5.453
G02 X58.1182 Y44.1887 I1.4232 J5.3127
G02 X57.4723 Y44.5072 I2.1044 J5.0815
G02 X56.8735 Y44.9073 I2.7497 J4.7633
G02 X56.3321 Y45.3821 I3.3479 J4.3637
G02 X55.8573 Y45.9235 I3.8888 J3.8893
G02 X55.4572 Y46.5223 I4.3632 J3.3485
G02 X55.1387 Y47.1682 I4.763 J2.7503
G02 X54.9072 Y47.8501 I5.0812 J2.1051
G02 X54.7667 Y48.5564 I5.3125 J1.4238
G02 X54.725 Y49.1932 I5.4581 J0.6775
G01 Y59.860
G01 Y63.860
G01 Y99.763
G01 Y103.763
G01 Y136.179
G01 Y140.179
G01 Y150.807
G02 X54.7667 Y151.4436 I5.4998 J-0.0407
G02 X54.9072 Y152.1499 I5.453 J-0.7175
G02 X55.1387 Y152.8318 I5.3127 J-1.4232
G02 X55.4572 Y153.4777 I5.0815 J-2.1044
G02 X55.8573 Y154.0765 I4.7633 J-2.7497
G02 X56.3321 Y154.6179 I4.3637 J-3.3479
G02 X56.8735 Y155.0927 I3.8893 J-3.8888
G02 X57.4723 Y155.4928 I3.3485 J-4.3632
G02 X58.1182 Y155.8113 I2.7503 J-4.763
G02 X58.8001 Y156.0428 I2.1051 J-5.0812
G02 X59.5064 Y156.1833 I1.4238 J-5.3125
G02 X60.1432 Y156.225 I0.6775 J-5.4581
G01 X69.311
G01 X73.311
G01 X108.448
G01 X112.448
G01 X165.892
G01 X169.892
G01 X199.857
G02 X200.4936 Y156.1833 I-0.0407 J-5.4998
G02 X201.1999 Y156.0428 I-0.7175 J-5.453
G02 X201.8818 Y155.8113 I-1.4232 J-5.3127
G02 X202.5277 Y155.4928 I-2.1044 J-5.0815
G02 X203.1265 Y155.0927 I-2.7497 J-4.7633
G02 X203.6679 Y154.6179 I-3.3479 J-4.3637
G02 X204.1427 Y154.0765 I-3.8888 J-3.8893
G02 X204.5428 Y153.4777 I-4.3632 J-3.3485
G02 X204.8613 Y152.8318 I-4.763 J-2.7503
G02 X205.0928 Y152.1499 I-5.0812 J-2.1051
G02 X205.2333 Y151.4436 I-5.3125 J-1.4238
G02 X205.275 Y150.8068 I-5.4581 J-0.6775
G01 Y139.690
G01 Y135.690
G01 Y102.000
G01 Y98.000
G01 Y63.073
G01 Y59.073
G01 Z-1.000 F1200
G01 Y49.193 F600 
G02 X205.2333 Y48.5564 I-5.4998 J0.0407
G02 X205.0928 Y47.8501 I-5.453 J0.7175
G02 X204.8613 Y47.1682 I-5.3127 J1.4232
G02 X204.5428 Y46.5223 I-5.0815 J2.1044
G02 X204.1427 Y45.9235 I-4.7633 J2.7497
G02 X203.6679 Y45.3821 I-4.3637 J3.3479
G02 X203.1265 Y44.9073 I-3.8893 J3.8888
G02 X202.5277 Y44.5072 I-3.3485 J4.3632
G02 X201.8818 Y44.1887 I-2.7503 J4.763
G02 X201.1999 Y43.9572 I-2.1051 J5.0812
G02 X200.4936 Y43.8167 I-1.4238 J5.3125
G02 X199.8568 Y43.775 I-0.6775 J5.4581
G01 X170.726
G01 X166.726
G01 X112.854
G01 X108.854
G01 X74.845
G01 X70.845
G01 X60.143
G02 X59.5064 Y43.8167 I0.0407 J5.4998
G02 X58.8001 Y43.9572 I0.7175 J5.453
G02 X58.1182 Y44.1887 I1.4232 J5.3127
G02 X57.4723 Y44.5072 I2.1044 J5.0815
G02 X56.8735 Y44.9073 I2.7497 J4.7633
G02 X56.3321 Y45.3821 I3.3479 J4.3637
G02 X55.8573 Y45.9235 I3.8888 J3.8893
G02 X55.4572 Y46.5223 I4.3632 J3.3485
G02 X55.1387 Y47.1682 I4.763 J2.7503
G02 X54.9072 Y47.8501 I5.0812 J2.1051
G02 X54.7667 Y48.5564 I5.3125 J1.4238
G02 X54.725 Y49.1932 I5.4581 J0.6775
G01 Y59.860
G01 Y63.860
G01 Y99.763
G01 Y103.763
G01 Y136.179
G01 Y140.179
G01 Y150.807
G02 X54.7667 Y151.4436 I5.4998 J-0.0407
G02 X54.9072 Y152.1499 I5.453 J-0.7175
G02 X55.1387 Y152.8318 I5.3127 J-1.4232
G02 X55.4572 Y153.4777 I5.0815 J-2.1044
G02 X55.8573 Y154.0765 I4.7633 J-2.7497
G02 X56.3321 Y154.6179 I4.3637 J-3.3479
G02 X56.8735 Y155.0927 I3.8893 J-3.8888
G02 X57.4723 Y155.4928 I3.3485 J-4.3632
G02 X58.1182 Y155.8113 I2.7503 J-4.763
G02 X58.8001 Y156.0428 I2.1051 J-5.0812
G02 X59.5064 Y156.1833 I1.4238 J-5.3125
G02 X60.1432 Y156.225 I0.6775 J-5.4581
G01 X69.311
G01 X73.311
G01 X108.448
G01 X112.448
G01 X165.892
G01 X169.892
G01 X199.857
G02 X200.4936 Y156.1833 I-0.0407 J-5.4998
G02 X201.1999 Y156.0428 I-0.7175 J-5.453
G02 X201.8818 Y155.8113 I-1.4232 J-5.3127
G02 X202.5277 Y155.4928 I-2.1044 J-5.0815
G02 X203.1265 Y155.0927 I-2.7497 J-4.7633
G02 X203.6679 Y154.6179 I-3.3479 J-4.3637
G02 X204.1427 Y154.0765 I-3.8888 J-3.8893
G02 X204.5428 Y153.4777 I-4.3632 J-3.3485
G02 X204.8613 Y152.8318 I-4.763 J-2.7503
G02 X205.0928 Y152.1499 I-5.0812 J-2.1051
G02 X205.2333 Y151.4436 I-5.3125 J-1.4238
G02 X205.275 Y150.8068 I-5.4581 J-0.6775
G01 Y139.690
G01 Y135.690
G01 Y102.000
G01 Y98.000
G01 Y63.073
G01 Y59.073
G01 Z-1.500 F1200
G01 Y49.193 F600 
G02 X205.2333 Y48.5564 I-5.4998 J0.0407
G02 X205.0928 Y47.8501 I-5.453 J0.7175
G02 X204.8613 Y47.1682 I-5.3127 J1.4232
G02 X204.5428 Y46.5223 I-5.0815 J2.1044
G02 X204.1427 Y45.9235 I-4.7633 J2.7497
G02 X203.6679 Y45.3821 I-4.3637 J3.3479
G02 X203.1265 Y44.9073 I-3.8893 J3.8888
G02 X202.5277 Y44.5072 I-3.3485 J4.3632
G02 X201.8818 Y44.1887 I-2.7503 J4.763
G02 X201.1999 Y43.9572 I-2.1051 J5.0812
G02 X200.4936 Y43.8167 I-1.4238 J5.3125
G02 X199.8568 Y43.775 I-0.6775 J5.4581
G01 X170.726
G01 X166.726
G01 X112.854
G01 X108.854
G01 X74.845
G01 X70.845
G01 X60.143
G02 X59.5064 Y43.8167 I0.0407 J5.4998
G02 X58.8001 Y43.9572 I0.7175 J5.453
G02 X58.1182 Y44.1887 I1.4232 J5.3127
G02 X57.4723 Y44.5072 I2.1044 J5.0815
G02 X56.8735 Y44.9073 I2.7497 J4.7633
G02 X56.3321 Y45.3821 I3.3479 J4.3637
G02 X55.8573 Y45.9235 I3.8888 J3.8893
G02 X55.4572 Y46.5223 I4.3632 J3.3485
G02 X55.1387 Y47.1682 I4.763 J2.7503
G02 X54.9072 Y47.8501 I5.0812 J2.1051
G02 X54.7667 Y48.5564 I5.3125 J1.4238
G02 X54.725 Y49.1932 I5.4581 J0.6775
G01 Y59.860
G01 Y63.860
G01 Y99.763
G01 Y103.763
G01 Y136.179
G01 Y140.179
G01 Y150.807
G02 X54.7667 Y151.4436 I5.4998 J-0.0407
G02 X54.9072 Y152.1499 I5.453 J-0.7175
G02 X55.1387 Y152.8318 I5.3127 J-1.4232
G02 X55.4572 Y153.4777 I5.0815 J-2.1044
G02 X55.8573 Y154.0765 I4.7633 J-2.7497
G02 X56.3321 Y154.6179 I4.3637 J-3.3479
G02 X56.8735 Y155.0927 I3.8893 J-3.8888
G02 X57.4723 Y155.4928 I3.3485 J-4.3632
G02 X58.1182 Y155.8113 I2.7503 J-4.763
G02 X58.8001 Y156.0428 I2.1051 J-5.0812
G02 X59.5064 Y156.1833 I1.4238 J-5.3125
G02 X60.1432 Y156.225 I0.6775 J-5.4581
G01 X69.311
G01 X73.311
G01 X108.448
G01 X112.448
G01 X165.892
G01 X169.892
G01 X199.857
G02 X200.4936 Y156.1833 I-0.0407 J-5.4998
G02 X201.1999 Y156.0428 I-0.7175 J-5.453
G02 X201.8818 Y155.8113 I-1.4232 J-5.3127
G02 X202.5277 Y155.4928 I-2.1044 J-5.0815
G02 X203.1265 Y155.0927 I-2.7497 J-4.7633
G02 X203.6679 Y154.6179 I-3.3479 J-4.3637
G02 X204.1427 Y154.0765 I-3.8888 J-3.8893
G02 X204.5428 Y153.4777 I-4.3632 J-3.3485
G02 X204.8613 Y152.8318 I-4.763 J-2.7503
G02 X205.0928 Y152.1499 I-5.0812 J-2.1051
G02 X205.2333 Y151.4436 I-5.3125 J-1.4238
G02 X205.275 Y150.8068 I-5.4581 J-0.6775
G01 Y139.690
G01 Y135.690
G01 Y102.000
G01 Y98.000
G01 Y63.073
G01 Y59.073
G01 Z-2.000 F1200
G01 Y49.193 F600 
G02 X205.2333 Y48.5564 I-5.4998 J0.0407
G02 X205.0928 Y47.8501 I-5.453 J0.7175
G02 X204.8613 Y47.1682 I-5.3127 J1.4232
G02 X204.5428 Y46.5223 I-5.0815 J2.1044
G02 X204.1427 Y45.9235 I-4.7633 J2.7497
G02 X203.6679 Y45.3821 I-4.3637 J3.3479
G02 X203.1265 Y44.9073 I-3.8893 J3.8888
G02 X202.5277 Y44.5072 I-3.3485 J4.3632
G02 X201.8818 Y44.1887 I-2.7503 J4.763
G02 X201.1999 Y43.9572 I-2.1051 J5.0812
G02 X200.4936 Y43.8167 I-1.4238 J5.3125
G02 X199.8568 Y43.775 I-0.6775 J5.4581
G01 X170.726
G01 X166.726
G01 X112.854
G01 X108.854
G01 X74.845
G01 X70.845
G01 X60.143
G02 X59.5064 Y43.8167 I0.0407 J5.4998
G02 X58.8001 Y43.9572 I0.7175 J5.453
G02 X58.1182 Y44.1887 I1.4232 J5.3127
G02 X57.4723 Y44.5072 I2.1044 J5.0815
G02 X56.8735 Y44.9073 I2.7497 J4.7633
G02 X56.3321 Y45.3821 I3.3479 J4.3637
G02 X55.8573 Y45.9235 I3.8888 J3.8893
G02 X55.4572 Y46.5223 I4.3632 J3.3485
G02 X55.1387 Y47.1682 I4.763 J2.7503
G02 X54.9072 Y47.8501 I5.0812 J2.1051
G02 X54.7667 Y48.5564 I5.3125 J1.4238
G02 X54.725 Y49.1932 I5.4581 J0.6775
G01 Y59.860
G01 Y63.860
G01 Y99.763
G01 Y103.763
G01 Y136.179
G01 Y140.179
G01 Y150.807
G02 X54.7667 Y151.4436 I5.4998 J-0.0407
G02 X54.9072 Y152.1499 I5.453 J-0.7175
G02 X55.1387 Y152.8318 I5.3127 J-1.4232
G02 X55.4572 Y153.4777 I5.0815 J-2.1044
G02 X55.8573 Y154.0765 I4.7633 J-2.7497
G02 X56.3321 Y154.6179 I4.3637 J-3.3479
G02 X56.8735 Y155.0927 I3.8893 J-3.8888
G02 X57.4723 Y155.4928 I3.3485 J-4.3632
G02 X58.1182 Y155.8113 I2.7503 J-4.763
G02 X58.8001 Y156.0428 I2.1051 J-5.0812
G02 X59.5064 Y156.1833 I1.4238 J-5.3125
G02 X60.1432 Y156.225 I0.6775 J-5.4581
G01 X69.311
G01 X73.311
G01 X108.448
G01 X112.448
G01 X165.892
G01 X169.892
G01 X199.857
G02 X200.4936 Y156.1833 I-0.0407 J-5.4998
G02 X201.1999 Y156.0428 I-0.7175 J-5.453
G02 X201.8818 Y155.8113 I-1.4232 J-5.3127
G02 X202.5277 Y155.4928 I-2.1044 J-5.0815
G02 X203.1265 Y155.0927 I-2.7497 J-4.7633
G02 X203.6679 Y154.6179 I-3.3479 J-4.3637
G02 X204.1427 Y154.0765 I-3.8888 J-3.8893
G02 X204.5428 Y153.4777 I-4.3632 J-3.3485
G02 X204.8613 Y152.8318 I-4.763 J-2.7503
G02 X205.0928 Y152.1499 I-5.0812 J-2.1051
G02 X205.2333 Y151.4436 I-5.3125 J-1.4238
G02 X205.275 Y150.8068 I-5.4581 J-0.6775
G01 Y139.690
G01 Y135.690
G01 Y102.000
G01 Y98.000
G01 Y63.073
G01 Y59.073
G01 Z-2.500 F1200
G01 Y49.193 F600 
G02 X205.2333 Y48.5564 I-5.4998 J0.0407
G02 X205.0928 Y47.8501 I-5.453 J0.7175
G02 X204.8613 Y47.1682 I-5.3127 J1.4232
G02 X204.5428 Y46.5223 I-5.0815 J2.1044
G02 X204.1427 Y45.9235 I-4.7633 J2.7497
G02 X203.6679 Y45.3821 I-4.3637 J3.3479
G02 X203.1265 Y44.9073 I-3.8893 J3.8888
G02 X202.5277 Y44.5072 I-3.3485 J4.3632
G02 X201.8818 Y44.1887 I-2.7503 J4.763
G02 X201.1999 Y43.9572 I-2.1051 J5.0812
G02 X200.4936 Y43.8167 I-1.4238 J5.3125
G02 X199.8568 Y43.775 I-0.6775 J5.4581
G01 X170.726
G01 Z-2.000
G01 X166.726
G01 Z-2.500 F1200
G01 X112.854 F600 
G01 Z-2.000
G01 X108.854
G01 Z-2.500 F1200
G01 X74.845 F600 
G01 Z-2.000
G01 X70.845
G01 Z-2.500 F1200
G01 X60.143 F600 
G02 X59.5064 Y43.8167 I0.0407 J5.4998
G02 X58.8001 Y43.9572 I0.7175 J5.453
G02 X58.1182 Y44.1887 I1.4232 J5.3127
G02 X57.4723 Y44.5072 I2.1044 J5.0815
G02 X56.8735 Y44.9073 I2.7497 J4.7633
G02 X56.3321 Y45.3821 I3.3479 J4.3637
G02 X55.8573 Y45.9235 I3.8888 J3.8893
G02 X55.4572 Y46.5223 I4.3632 J3.3485
G02 X55.1387 Y47.1682 I4.763 J2.7503
G02 X54.9072 Y47.8501 I5.0812 J2.1051
G02 X54.7667 Y48.5564 I5.3125 J1.4238
G02 X54.725 Y49.1932 I5.4581 J0.6775
G01 Y59.860
G01 Z-2.000
G01 Y63.860
G01 Z-2.500 F1200
G01 Y99.763 F600 
G01 Z-2.000
G01 Y103.763
G01 Z-2.500 F1200
G01 Y136.179 F600 
G01 Z-2.000
G01 Y140.179
G01 Z-2.500 F1200
G01 Y150.807 F600 
G02 X54.7667 Y151.4436 I5.4998 J-0.0407
G02 X54.9072 Y152.1499 I5.453 J-0.7175
G02 X55.1387 Y152.8318 I5.3127 J-1.4232
G02 X55.4572 Y153.4777 I5.0815 J-2.1044
G02 X55.8573 Y154.0765 I4.7633 J-2.7497
G02 X56.3321 Y154.6179 I4.3637 J-3.3479
G02 X56.8735 Y155.0927 I3.8893 J-3.8888
G02 X57.4723 Y155.4928 I3.3485 J-4.3632
G02 X58.1182 Y155.8113 I2.7503 J-4.763
G02 X58.8001 Y156.0428 I2.1051 J-5.0812
G02 X59.5064 Y156.1833 I1.4238 J-5.3125
G02 X60.1432 Y156.225 I0.6775 J-5.4581
G01 X69.311
G01 Z-2.000
G01 X73.311
G01 Z-2.500 F1200
G01 X108.448 F600 
G01 Z-2.000
G01 X112.448
G01 Z-2.500 F1200
G01 X165.892 F600 
G01 Z-2.000
G01 X169.892
G01 Z-2.500 F1200
G01 X199.857 F600 
G02 X200.4936 Y156.1833 I-0.0407 J-5.4998
G02 X201.1999 Y156.0428 I-0.7175 J-5.453
G02 X201.8818 Y155.8113 I-1.4232 J-5.3127
G02 X202.5277 Y155.4928 I-2.1044 J-5.0815
G02 X203.1265 Y155.0927 I-2.7497 J-4.7633
G02 X203.6679 Y154.6179 I-3.3479 J-4.3637
G02 X204.1427 Y154.0765 I-3.8888 J-3.8893
G02 X204.5428 Y153.4777 I-4.3632 J-3.3485
G02 X204.8613 Y152.8318 I-4.763 J-2.7503
G02 X205.0928 Y152.1499 I-5.0812 J-2.1051
G02 X205.2333 Y151.4436 I-5.3125 J-1.4238
G02 X205.275 Y150.8068 I-5.4581 J-0.6775
G01 Y139.690
G01 Z-2.000
G01 Y135.690
G01 Z-2.500 F1200
G01 Y102.000 F600 
G01 Z-2.000
G01 Y98.000
G01 Z-2.500 F1200
G01 Y63.073 F600 
G01 Z-2.000
G01 Y59.073
G01 Z-2.500 F1200
G01 Z-3.000
G01 Y49.193 F600 
G02 X205.2333 Y48.5564 I-5.4998 J0.0407
G02 X205.0928 Y47.8501 I-5.453 J0.7175
G02 X204.8613 Y47.1682 I-5.3127 J1.4232
G02 X204.5428 Y46.5223 I-5.0815 J2.1044
G02 X204.1427 Y45.9235 I-4.7633 J2.7497
G02 X203.6679 Y45.3821 I-4.3637 J3.3479
G02 X203.1265 Y44.9073 I-3.8893 J3.8888
G02 X202.5277 Y44.5072 I-3.3485 J4.3632
G02 X201.8818 Y44.1887 I-2.7503 J4.763
G02 X201.1999 Y43.9572 I-2.1051 J5.0812
G02 X200.4936 Y43.8167 I-1.4238 J5.3125
G02 X199.8568 Y43.775 I-0.6775 J5.4581
G01 X170.726
G01 Z-2.000
G01 X166.726
G01 Z-3.000 F1200
G01 X112.854 F600 
G01 Z-2.000
G01 X108.854
G01 Z-3.000 F1200
G01 X74.845 F600 
G01 Z-2.000
G01 X70.845
G01 Z-3.000 F1200
G01 X60.143 F600 
G02 X59.5064 Y43.8167 I0.0407 J5.4998
G02 X58.8001 Y43.9572 I0.7175 J5.453
G02 X58.1182 Y44.1887 I1.4232 J5.3127
G02 X57.4723 Y44.5072 I2.1044 J5.0815
G02 X56.8735 Y44.9073 I2.7497 J4.7633
G02 X56.3321 Y45.3821 I3.3479 J4.3637
G02 X55.8573 Y45.9235 I3.8888 J3.8893
G02 X55.4572 Y46.5223 I4.3632 J3.3485
G02 X55.1387 Y47.1682 I4.763 J2.7503
G02 X54.9072 Y47.8501 I5.0812 J2.1051
G02 X54.7667 Y48.5564 I5.3125 J1.4238
G02 X54.725 Y49.1932 I5.4581 J0.6775
G01 Y59.860
G01 Z-2.000
G01 Y63.860
G01 Z-3.000 F1200
G01 Y99.763 F600 
G01 Z-2.000
G01 Y103.763
G01 Z-3.000 F1200
G01 Y136.179 F600 
G01 Z-2.000
G01 Y140.179
G01 Z-3.000 F1200
G01 Y150.807 F600 
G02 X54.7667 Y151.4436 I5.4998 J-0.0407
G02 X54.9072 Y152.1499 I5.453 J-0.7175
G02 X55.1387 Y152.8318 I5.3127 J-1.4232
G02 X55.4572 Y153.4777 I5.0815 J-2.1044
G02 X55.8573 Y154.0765 I4.7633 J-2.7497
G02 X56.3321 Y154.6179 I4.3637 J-3.3479
G02 X56.8735 Y155.0927 I3.8893 J-3.8888
G02 X57.4723 Y155.4928 I3.3485 J-4.3632
G02 X58.1182 Y155.8113 I2.7503 J-4.763
G02 X58.8001 Y156.0428 I2.1051 J-5.0812
G02 X59.5064 Y156.1833 I1.4238 J-5.3125
G02 X60.1432 Y156.225 I0.6775 J-5.4581
G01 X69.311
G01 Z-2.000
G01 X73.311
G01 Z-3.000 F1200
G01 X108.448 F600 
G01 Z-2.000
G01 X112.448
G01 Z-3.000 F1200
G01 X165.892 F600 
G01 Z-2.000
G01 X169.892
G01 Z-3.000 F1200
G01 X199.857 F600 
G02 X200.4936 Y156.1833 I-0.0407 J-5.4998
G02 X201.1999 Y156.0428 I-0.7175 J-5.453
G02 X201.8818 Y155.8113 I-1.4232 J-5.3127
G02 X202.5277 Y155.4928 I-2.1044 J-5.0815
G02 X203.1265 Y155.0927 I-2.7497 J-4.7633
G02 X203.6679 Y154.6179 I-3.3479 J-4.3637
G02 X204.1427 Y154.0765 I-3.8888 J-3.8893
G02 X204.5428 Y153.4777 I-4.3632 J-3.3485
G02 X204.8613 Y152.8318 I-4.763 J-2.7503
G02 X205.0928 Y152.1499 I-5.0812 J-2.1051
G02 X205.2333 Y151.4436 I-5.3125 J-1.4238
G02 X205.275 Y150.8068 I-5.4581 J-0.6775
G01 Y139.690
G01 Z-2.000
G01 Y135.690
G01 Z-3.000 F1200
G01 Y102.000 F600 
G01 Z-2.000
G01 Y98.000
G01 Z-3.000 F1200
G01 Y63.073 F600 
G01 Z-2.000
G01 Y59.073
G01 Z-3.000 F1200
G01 Z-3.500
G01 Y49.193 F600 
G02 X205.2333 Y48.5564 I-5.4998 J0.0407
G02 X205.0928 Y47.8501 I-5.453 J0.7175
G02 X204.8613 Y47.1682 I-5.3127 J1.4232
G02 X204.5428 Y46.5223 I-5.0815 J2.1044
G02 X204.1427 Y45.9235 I-4.7633 J2.7497
G02 X203.6679 Y45.3821 I-4.3637 J3.3479
G02 X203.1265 Y44.9073 I-3.8893 J3.8888
G02 X202.5277 Y44.5072 I-3.3485 J4.3632
G02 X201.8818 Y44.1887 I-2.7503 J4.763
G02 X201.1999 Y43.9572 I-2.1051 J5.0812
G02 X200.4936 Y43.8167 I-1.4238 J5.3125
G02 X199.8568 Y43.775 I-0.6775 J5.4581
G01 X170.726
G01 Z-2.000
G01 X166.726
G01 Z-3.500 F1200
G01 X112.854 F600 
G01 Z-2.000
G01 X108.854
G01 Z-3.500 F1200
G01 X74.845 F600 
G01 Z-2.000
G01 X70.845
G01 Z-3.500 F1200
G01 X60.143 F600 
G02 X59.5064 Y43.8167 I0.0407 J5.4998
G02 X58.8001 Y43.9572 I0.7175 J5.453
G02 X58.1182 Y44.1887 I1.4232 J5.3127
G02 X57.4723 Y44.5072 I2.1044 J5.0815
G02 X56.8735 Y44.9073 I2.7497 J4.7633
G02 X56.3321 Y45.3821 I3.3479 J4.3637
G02 X55.8573 Y45.9235 I3.8888 J3.8893
G02 X55.4572 Y46.5223 I4.3632 J3.3485
G02 X55.1387 Y47.1682 I4.763 J2.7503
G02 X54.9072 Y47.8501 I5.0812 J2.1051
G02 X54.7667 Y48.5564 I5.3125 J1.4238
G02 X54.725 Y49.1932 I5.4581 J0.6775
G01 Y59.860
G01 Z-2.000
G01 Y63.860
G01 Z-3.500 F1200
G01 Y99.763 F600 
G01 Z-2.000
G01 Y103.763
G01 Z-3.500 F1200
G01 Y136.179 F600 
G01 Z-2.000
G01 Y140.179
G01 Z-3.500 F1200
G01 Y150.807 F600 
G02 X54.7667 Y151.4436 I5.4998 J-0.0407
G02 X54.9072 Y152.1499 I5.453 J-0.7175
G02 X55.1387 Y152.8318 I5.3127 J-1.4232
G02 X55.4572 Y153.4777 I5.0815 J-2.1044
G02 X55.8573 Y154.0765 I4.7633 J-2.7497
G02 X56.3321 Y154.6179 I4.3637 J-3.3479
G02 X56.8735 Y155.0927 I3.8893 J-3.8888
G02 X57.4723 Y155.4928 I3.3485 J-4.3632
G02 X58.1182 Y155.8113 I2.7503 J-4.763
G02 X58.8001 Y156.0428 I2.1051 J-5.0812
G02 X59.5064 Y156.1833 I1.4238 J-5.3125
G02 X60.1432 Y156.225 I0.6775 J-5.4581
G01 X69.311
G01 Z-2.000
G01 X73.311
G01 Z-3.500 F1200
G01 X108.448 F600 
G01 Z-2.000
G01 X112.448
G01 Z-3.500 F1200
G01 X165.892 F600 
G01 Z-2.000
G01 X169.892
G01 Z-3.500 F1200
G01 X199.857 F600 
G02 X200.4936 Y156.1833 I-0.0407 J-5.4998
G02 X201.1999 Y156.0428 I-0.7175 J-5.453
G02 X201.8818 Y155.8113 I-1.4232 J-5.3127
G02 X202.5277 Y155.4928 I-2.1044 J-5.0815
G02 X203.1265 Y155.0927 I-2.7497 J-4.7633
G02 X203.6679 Y154.6179 I-3.3479 J-4.3637
G02 X204.1427 Y154.0765 I-3.8888 J-3.8893
G02 X204.5428 Y153.4777 I-4.3632 J-3.3485
G02 X204.8613 Y152.8318 I-4.763 J-2.7503
G02 X205.0928 Y152.1499 I-5.0812 J-2.1051
G02 X205.2333 Y151.4436 I-5.3125 J-1.4238
G02 X205.275 Y150.8068 I-5.4581 J-0.6775
G01 Y139.690
G01 Z-2.000
G01 Y135.690
G01 Z-3.500 F1200
G01 Y102.000 F600 
G01 Z-2.000
G01 Y98.000
G01 Z-3.500 F1200
G01 Y63.073 F600 
G01 Z-2.000
G01 Y59.073
G01 Z-3.500 F1200
G01 Z-4.000
G01 Y49.193 F600 
G02 X205.2333 Y48.5564 I-5.4998 J0.0407
G02 X205.0928 Y47.8501 I-5.453 J0.7175
G02 X204.8613 Y47.1682 I-5.3127 J1.4232
G02 X204.5428 Y46.5223 I-5.0815 J2.1044
G02 X204.1427 Y45.9235 I-4.7633 J2.7497
G02 X203.6679 Y45.3821 I-4.3637 J3.3479
G02 X203.1265 Y44.9073 I-3.8893 J3.8888
G02 X202.5277 Y44.5072 I-3.3485 J4.3632
G02 X201.8818 Y44.1887 I-2.7503 J4.763
G02 X201.1999 Y43.9572 I-2.1051 J5.0812
G02 X200.4936 Y43.8167 I-1.4238 J5.3125
G02 X199.8568 Y43.775 I-0.6775 J5.4581
G01 X170.726
G01 Z-2.000
G01 X166.726
G01 Z-4.000 F1200
G01 X112.854 F600 
G01 Z-2.000
G01 X108.854
G01 Z-4.000 F1200
G01 X74.845 F600 
G01 Z-2.000
G01 X70.845
G01 Z-4.000 F1200
G01 X60.143 F600 
G02 X59.5064 Y43.8167 I0.0407 J5.4998
G02 X58.8001 Y43.9572 I0.7175 J5.453
G02 X58.1182 Y44.1887 I1.4232 J5.3127
G02 X57.4723 Y44.5072 I2.1044 J5.0815
G02 X56.8735 Y44.9073 I2.7497 J4.7633
G02 X56.3321 Y45.3821 I3.3479 J4.3637
G02 X55.8573 Y45.9235 I3.8888 J3.8893
G02 X55.4572 Y46.5223 I4.3632 J3.3485
G02 X55.1387 Y47.1682 I4.763 J2.7503
G02 X54.9072 Y47.8501 I5.0812 J2.1051
G02 X54.7667 Y48.5564 I5.3125 J1.4238
G02 X54.725 Y49.1932 I5.4581 J0.6775
G01 Y59.860
G01 Z-2.000
G01 Y63.860
G01 Z-4.000 F1200
G01 Y99.763 F600 
G01 Z-2.000
G01 Y103.763
G01 Z-4.000 F1200
G01 Y136.179 F600 
G01 Z-2.000
G01 Y140.179
G01 Z-4.000 F1200
G01 Y150.807 F600 
G02 X54.7667 Y151.4436 I5.4998 J-0.0407
G02 X54.9072 Y152.1499 I5.453 J-0.7175
G02 X55.1387 Y152.8318 I5.3127 J-1.4232
G02 X55.4572 Y153.4777 I5.0815 J-2.1044
G02 X55.8573 Y154.0765 I4.7633 J-2.7497
G02 X56.3321 Y154.6179 I4.3637 J-3.3479
G02 X56.8735 Y155.0927 I3.8893 J-3.8888
G02 X57.4723 Y155.4928 I3.3485 J-4.3632
G02 X58.1182 Y155.8113 I2.7503 J-4.763
G02 X58.8001 Y156.0428 I2.1051 J-5.0812
G02 X59.5064 Y156.1833 I1.4238 J-5.3125
G02 X60.1432 Y156.225 I0.6775 J-5.4581
G01 X69.311
G01 Z-2.000
G01 X73.311
G01 Z-4.000 F1200
G01 X108.448 F600 
G01 Z-2.000
G01 X112.448
G01 Z-4.000 F1200
G01 X165.892 F600 
G01 Z-2.000
G01 X169.892
G01 Z-4.000 F1200
G01 X199.857 F600 
G02 X200.4936 Y156.1833 I-0.0407 J-5.4998
G02 X201.1999 Y156.0428 I-0.7175 J-5.453
G02 X201.8818 Y155.8113 I-1.4232 J-5.3127
G02 X202.5277 Y155.4928 I-2.1044 J-5.0815
G02 X203.1265 Y155.0927 I-2.7497 J-4.7633
G02 X203.6679 Y154.6179 I-3.3479 J-4.3637
G02 X204.1427 Y154.0765 I-3.8888 J-3.8893
G02 X204.5428 Y153.4777 I-4.3632 J-3.3485
G02 X204.8613 Y152.8318 I-4.763 J-2.7503
G02 X205.0928 Y152.1499 I-5.0812 J-2.1051
G02 X205.2333 Y151.4436 I-5.3125 J-1.4238
G02 X205.275 Y150.8068 I-5.4581 J-0.6775
G01 Y139.690
G01 Z-2.000
G01 Y135.690
G01 Z-4.000 F1200
G01 Y102.000 F600 
G01 Z-2.000
G01 Y98.000
G01 Z-4.000 F1200
G01 Y63.073 F600 
G01 Z-2.000
G01 Y59.073
G01 Z-4.000 F1200
G00 Z4.000
G00 X0 Y0 
M05
M30
%
