%
G90
G21
G49
G17
F1200
M3 S0
G00 Z4.000
G00 X27.486 Y96.085
G00 Z0.500
G01 Z-0.500 F1200
G01 X36.486 F600 
G01 Y105.085
G01 X27.486
G01 Y102.585
G01 Y98.585
G01 Y96.085
G01 Z-1.000 F1200
G01 X36.486 F600 
G01 Y105.085
G01 X27.486
G01 Y102.585
G01 Y98.585
G01 Y96.085
G01 Z-1.500 F1200
G01 X36.486 F600 
G01 Y105.085
G01 X27.486
G01 Y102.585
G01 Y98.585
G01 Y96.085
G01 Z-2.000 F1200
G01 X36.486 F600 
G01 Y105.085
G01 X27.486
G01 Y102.585
G01 Y98.585
G01 Y96.085
G01 Z-2.500 F1200
G01 X36.486 F600 
G01 Y105.085
G01 X27.486
G01 Y102.585
G01 Z-2.000
G01 Y98.585
G01 Z-2.500 F1200
G01 Y96.085 F600 
G01 Z-3.000 F1200
G01 X36.486 F600 
G01 Y105.085
G01 X27.486
G01 Y102.585
G01 Z-2.000
G01 Y98.585
G01 Z-3.000 F1200
G01 Y96.085 F600 
G01 Z-3.500 F1200
G01 X36.486 F600 
G01 Y105.085
G01 X27.486
G01 Y102.585
G01 Z-2.000
G01 Y98.585
G01 Z-3.500 F1200
G01 Y96.085 F600 
G01 Z-4.000 F1200
G01 X36.486 F600 
G01 Y105.085
G01 X27.486
G01 Y102.585
G01 Z-2.000
G01 Y98.585
G01 Z-4.000 F1200
G01 Y96.085 F600 
G00 Z4.000
G00 X0 Y0 
M05
M30
%
